[
    {
        "client": {
            "name": "ЗАО Фармакор (СПБ, Индустриальный)",
            "contactPerson": "ЗАО Фармакор (СПБ, Индустриальный)"
        },
        "location": {
            "name": "г.Санкт-Петербург, Невский проспект, д. 1",
            "address": "г.Санкт-Петербург, Невский проспект, д. 1"
        },
        "orderReference": "11379",
        "areaOfControl": "Склад 1",
        "date": "12.06.2015",
        "dropWindows": {
            "dropWindow": {
                "start": "12.06.2015 08:00",
                "end": "12.06.2015 20:00"
            }
        },
        "durationDrop": "00:15"
    },
    {
        "client": {
            "name": "ЗАО Фармакор (СПБ, Никольское)",
            "contactPerson": "ЗАО Фармакор (СПБ, Никольское)"
        },
        "location": {
            "name": "Тосненский район, Невский проспект, д. 2",
            "address": "Тосненский район, Невский проспект, д. 2"
        },
        "orderReference": "11306",
        "areaOfControl": "Склад 1",
        "date": "12.06.2015",
        "dropWindows": {
            "dropWindow": {
                "start": "12.06.2015 08:00",
                "end": "12.06.2015 20:00"
            }
        },
        "durationDrop": "00:15"
    }
]